v 20130925 2
P 900 1600 700 1600 1 0 1
{
T 600 1700 5 10 0 1 0 0 1
pinseq=1
T -200 1400 5 10 0 0 0 0 1
pinnumber=3
}
P 1000 2100 1000 1900 1 0 0
{
T 1100 2000 5 10 0 1 0 0 1
pinseq=3
T 1100 2200 5 10 0 0 0 0 1
pinnumber=1
}
P 1900 1600 1600 1600 1 0 0
{
T 1700 1700 5 10 0 1 0 0 1
pinseq=2
T 1900 1700 5 10 0 0 0 0 1
pinnumber=4
}
P 1600 1300 1600 1100 1 0 1
{
T 1700 1100 5 10 0 1 0 0 1
pinseq=4
T 1700 1300 5 10 0 0 0 0 1
pinnumber=0
}
T 1600 1950 8 10 1 1 0 0 1
refdes=X?
L 1000 1800 1000 1400 3 0 0 0 -1 -1
L 1000 1400 1400 1600 3 0 0 0 -1 -1
L 1400 1600 1000 1800 3 0 0 0 -1 -1
B 900 1300 800 600 3 0 0 0 -1 -1 0 -1 -1 -1 -1 -1
V 1500 1600 100 3 0 0 0 -1 -1 0 -1 -1 -1 -1 -1
T 800 1100 5 10 1 0 0 0 1
CD4069
T 511 2395 8 10 0 0 0 0 1
device=4069
T 700 1700 9 10 1 0 0 0 1
A
T 1100 1800 9 10 1 0 0 0 2
VDD

T 1900 1700 9 10 1 0 0 0 1
Y
T 1700 1300 9 10 1 0 0 0 1
VSS
