v 20130925 2
T 200 1100 5 10 0 0 0 0 1
device=NFET_TRANSISTOR
T 400 900 5 10 0 0 0 0 1
numslots=0
T 0 1300 5 10 0 0 0 0 1
description=generic P channel MOS transistor (enhancement type)
L 500 600 700 600 3 0 0 0 -1 -1
L 500 200 700 200 3 0 0 0 -1 -1
P 100 200 300 200 1 0 0
{
T 100 300 5 10 0 1 0 0 1
pinnumber=G
T 100 300 9 10 1 1 0 0 1
pinlabel=G
T 100 300 5 10 0 0 0 0 1
pinseq=2
T 100 300 5 10 0 0 0 0 1
pintype=pas
}
P 700 600 700 800 1 0 1
{
T 500 700 5 10 0 1 0 0 1
pinnumber=D
T 500 700 9 10 1 1 0 0 1
pinlabel=D
T 500 700 5 10 0 0 0 0 1
pinseq=1
T 500 700 5 10 0 0 0 0 1
pintype=pas
}
P 700 200 700 0 1 0 1
{
T 500 0 5 10 0 1 0 0 1
pinnumber=S
T 500 0 9 10 1 1 0 0 1
pinlabel=S
T 500 0 5 10 0 0 0 0 1
pinseq=3
T 500 0 5 10 0 0 0 0 1
pintype=pas
}
T 800 600 8 10 1 1 0 0 1
refdes=J?
L 500 700 500 100 3 0 0 0 -1 -1
L 500 200 300 200 3 0 0 0 -1 -1
L 500 200 300 100 3 0 0 0 -1 -1
L 500 200 300 300 3 0 0 0 -1 -1
